%YAML 1.1
%TAG !u! tag:unity3d.com,2011:
--- !u!1 &7306806120872831062
GameObject:
  m_ObjectHideFlags: 0
  m_CorrespondingSourceObject: {fileID: 0}
  m_PrefabInstance: {fileID: 0}
  m_PrefabAsset: {fileID: 0}
  serializedVersion: 6
  m_Component:
  - component: {fileID: 7306806120872831061}
  m_Layer: 7
  m_Name: Gun
  m_TagString: Untagged
  m_Icon: {fileID: 0}
  m_NavMeshLayer: 0
  m_StaticEditorFlags: 0
  m_IsActive: 1
--- !u!4 &7306806120872831061
Transform:
  m_ObjectHideFlags: 0
  m_CorrespondingSourceObject: {fileID: 0}
  m_PrefabInstance: {fileID: 0}
  m_PrefabAsset: {fileID: 0}
  m_GameObject: {fileID: 7306806120872831062}
  m_LocalRotation: {x: 0, y: 0, z: 0, w: 1}
  m_LocalPosition: {x: 0, y: -4.51, z: 0}
  m_LocalScale: {x: 1, y: 1, z: 1}
  m_Children: []
  m_Father: {fileID: 7306806121586530095}
  m_RootOrder: 0
  m_LocalEulerAnglesHint: {x: 0, y: 0, z: 0}
--- !u!1 &7306806121586530081
GameObject:
  m_ObjectHideFlags: 0
  m_CorrespondingSourceObject: {fileID: 0}
  m_PrefabInstance: {fileID: 0}
  m_PrefabAsset: {fileID: 0}
  serializedVersion: 6
  m_Component:
  - component: {fileID: 7306806121586530095}
  - component: {fileID: 7306806121586530094}
  - component: {fileID: 7306806121586530092}
  - component: {fileID: 7306806121586530093}
  - component: {fileID: 3574148442515121138}
  m_Layer: 7
  m_Name: Boss
  m_TagString: Enemy
  m_Icon: {fileID: 0}
  m_NavMeshLayer: 0
  m_StaticEditorFlags: 0
  m_IsActive: 1
--- !u!4 &7306806121586530095
Transform:
  m_ObjectHideFlags: 0
  m_CorrespondingSourceObject: {fileID: 0}
  m_PrefabInstance: {fileID: 0}
  m_PrefabAsset: {fileID: 0}
  m_GameObject: {fileID: 7306806121586530081}
  m_LocalRotation: {x: 0, y: 0, z: 0, w: 1}
  m_LocalPosition: {x: 0, y: 3.17, z: 0}
  m_LocalScale: {x: 0.1, y: 0.1, z: 0.1}
  m_Children:
  - {fileID: 7306806120872831061}
  m_Father: {fileID: 0}
  m_RootOrder: 0
  m_LocalEulerAnglesHint: {x: 0, y: 0, z: 0}
--- !u!212 &7306806121586530094
SpriteRenderer:
  m_ObjectHideFlags: 0
  m_CorrespondingSourceObject: {fileID: 0}
  m_PrefabInstance: {fileID: 0}
  m_PrefabAsset: {fileID: 0}
  m_GameObject: {fileID: 7306806121586530081}
  m_Enabled: 1
  m_CastShadows: 0
  m_ReceiveShadows: 0
  m_DynamicOccludee: 1
  m_StaticShadowCaster: 0
  m_MotionVectors: 1
  m_LightProbeUsage: 1
  m_ReflectionProbeUsage: 1
  m_RayTracingMode: 0
  m_RayTraceProcedural: 0
  m_RenderingLayerMask: 1
  m_RendererPriority: 0
  m_Materials:
  - {fileID: 10754, guid: 0000000000000000f000000000000000, type: 0}
  m_StaticBatchInfo:
    firstSubMesh: 0
    subMeshCount: 0
  m_StaticBatchRoot: {fileID: 0}
  m_ProbeAnchor: {fileID: 0}
  m_LightProbeVolumeOverride: {fileID: 0}
  m_ScaleInLightmap: 1
  m_ReceiveGI: 1
  m_PreserveUVs: 0
  m_IgnoreNormalsForChartDetection: 0
  m_ImportantGI: 0
  m_StitchLightmapSeams: 1
  m_SelectedEditorRenderState: 0
  m_MinimumChartSize: 4
  m_AutoUVMaxDistance: 0.5
  m_AutoUVMaxAngle: 89
  m_LightmapParameters: {fileID: 0}
  m_SortingLayerID: 0
  m_SortingLayer: 0
  m_SortingOrder: 0
  m_Sprite: {fileID: 21300000, guid: ff81d15bb417ef64ca9e1ee04e463da8, type: 3}
  m_Color: {r: 0.8669086, g: 0.27843142, b: 1, a: 1}
  m_FlipX: 0
  m_FlipY: 0
  m_DrawMode: 0
  m_Size: {x: 10.24, y: 10.24}
  m_AdaptiveModeThreshold: 0.5
  m_SpriteTileMode: 0
  m_WasSpriteAssigned: 1
  m_MaskInteraction: 0
  m_SpriteSortPoint: 0
--- !u!114 &7306806121586530092
MonoBehaviour:
  m_ObjectHideFlags: 0
  m_CorrespondingSourceObject: {fileID: 0}
  m_PrefabInstance: {fileID: 0}
  m_PrefabAsset: {fileID: 0}
  m_GameObject: {fileID: 7306806121586530081}
  m_Enabled: 1
  m_EditorHideFlags: 0
  m_Script: {fileID: 11500000, guid: 499b434c2581fb34b9bf48a811d9c3c3, type: 3}
  m_Name: 
  m_EditorClassIdentifier: 
  enemySpaceship: {fileID: 7306806121586530093}
  chasingThresholdDistance: 8
  minimumDistance: 2
  playerTarget: {fileID: 0}
  delta: {x: 0, y: 0, z: 0}
--- !u!114 &7306806121586530093
MonoBehaviour:
  m_ObjectHideFlags: 0
  m_CorrespondingSourceObject: {fileID: 0}
  m_PrefabInstance: {fileID: 0}
  m_PrefabAsset: {fileID: 0}
  m_GameObject: {fileID: 7306806121586530081}
  m_Enabled: 1
  m_EditorHideFlags: 0
  m_Script: {fileID: 11500000, guid: 77db5bfdcaa94f42b952f1aa4cbf4f65, type: 3}
  m_Name: 
  m_EditorClassIdentifier: 
  defaultBullet: {fileID: 2351505789232887715, guid: 6e1e7f402d7532d4bb22f1e2a134ed4c, type: 3}
  gunPosition: {fileID: 7306806120872831061}
  fireRate: 0.5
  enemyFireSound: {fileID: 8300000, guid: 80a467b70037a41458ecce4e781df525, type: 3}
  enemyFireSoundVolume: 0.5
  enemyExplodeSound: {fileID: 8300000, guid: 30daa2401b0279b479c4e4fc4f4e8ff9, type: 3}
  enemyExplodeSoundVolume: 0.5
--- !u!60 &3574148442515121138
PolygonCollider2D:
  m_ObjectHideFlags: 0
  m_CorrespondingSourceObject: {fileID: 0}
  m_PrefabInstance: {fileID: 0}
  m_PrefabAsset: {fileID: 0}
  m_GameObject: {fileID: 7306806121586530081}
  m_Enabled: 1
  m_Density: 1
  m_Material: {fileID: 0}
  m_IsTrigger: 0
  m_UsedByEffector: 0
  m_UsedByComposite: 0
  m_Offset: {x: 0, y: 0}
  m_SpriteTilingProperty:
    border: {x: 0, y: 0, z: 0, w: 0}
    pivot: {x: 0.5, y: 0.5}
    oldSize: {x: 10.24, y: 10.24}
    newSize: {x: 10.24, y: 10.24}
    adaptiveTilingThreshold: 0.5
    drawMode: 0
    adaptiveTiling: 0
  m_AutoTiling: 0
  m_Points:
    m_Paths:
    - - {x: -1.1, y: -0.59}
      - {x: -1.05, y: -0.63}
      - {x: -1.02, y: -0.64}
      - {x: -0.39999998, y: -0.64}
      - {x: -0.39, y: -0.65}
      - {x: -0.34, y: -0.66999996}
      - {x: -0.34, y: -1.41}
      - {x: -0.29, y: -1.5799999}
      - {x: -0.26, y: -1.68}
      - {x: -0.24, y: -1.7199999}
      - {x: -0.24, y: -2.95}
      - {x: -0.22, y: -2.97}
      - {x: 0.11, y: -2.97}
      - {x: 0.13, y: -2.95}
      - {x: 0.14, y: -2.84}
      - {x: 0.14, y: -2.78}
      - {x: 0.22, y: -2.78}
      - {x: 0.24, y: -2.76}
      - {x: 0.24, y: -1.74}
      - {x: 0.28, y: -1.74}
      - {x: 0.32, y: -1.6899999}
      - {x: 0.39, y: -1.43}
      - {x: 0.41, y: -1.43}
      - {x: 0.44, y: -1.4}
      - {x: 0.44, y: -0.96999997}
      - {x: 0.45, y: -0.96}
      - {x: 0.5, y: -0.65}
      - {x: 0.51, y: -0.64}
      - {x: 1.02, y: -0.64}
      - {x: 1.1, y: -0.59}
      - {x: 1.15, y: -0.47}
      - {x: 1.2099999, y: -0.32}
      - {x: 1.26, y: -0.34}
      - {x: 1.26, y: -1.01}
      - {x: 1.27, y: -1.02}
      - {x: 1.27, y: -4.79}
      - {x: 1.29, y: -4.81}
      - {x: 2.1, y: -4.81}
      - {x: 2.12, y: -4.7999997}
      - {x: 2.2, y: -4.58}
      - {x: 2.35, y: -4.08}
      - {x: 2.3999999, y: -4.08}
      - {x: 2.44, y: -4.0499997}
      - {x: 2.54, y: -3.86}
      - {x: 2.7, y: -3.48}
      - {x: 3, y: -2.83}
      - {x: 3.1, y: -2.61}
      - {x: 3.1699998, y: -2.46}
      - {x: 3.27, y: -2.24}
      - {x: 3.3999999, y: -1.9599999}
      - {x: 3.5, y: -1.74}
      - {x: 3.6299999, y: -1.4599999}
      - {x: 3.73, y: -1.24}
      - {x: 3.8, y: -1.09}
      - {x: 3.85, y: -0.97999996}
      - {x: 3.9099998, y: -0.84999996}
      - {x: 3.9599998, y: -0.74}
      - {x: 4.0899997, y: -0.45999998}
      - {x: 4.49, y: 0.41}
      - {x: 4.65, y: 0.76}
      - {x: 4.7999997, y: 1.0799999}
      - {x: 4.87, y: 1.26}
      - {x: 4.89, y: 1.38}
      - {x: 4.91, y: 1.48}
      - {x: 4.92, y: 1.55}
      - {x: 4.92, y: 2.81}
      - {x: 4.9, y: 2.83}
      - {x: 4.44, y: 2.85}
      - {x: 4.48, y: 2.99}
      - {x: 4.49, y: 3.06}
      - {x: 4.44, y: 3.11}
      - {x: 4.22, y: 3.24}
      - {x: 3.76, y: 3.51}
      - {x: 2.1, y: 4.48}
      - {x: 1.54, y: 4.7999997}
      - {x: -1.53, y: 4.7999997}
      - {x: -1.5799999, y: 4.7799997}
      - {x: -1.6999999, y: 4.71}
      - {x: -1.89, y: 4.6}
      - {x: -1.99, y: 4.54}
      - {x: -2.61, y: 4.18}
      - {x: -2.71, y: 4.12}
      - {x: -4.15, y: 3.28}
      - {x: -4.47, y: 3.1}
      - {x: -4.5, y: 3.03}
      - {x: -4.43, y: 2.84}
      - {x: -4.5299997, y: 2.84}
      - {x: -4.9, y: 2.83}
      - {x: -4.92, y: 2.81}
      - {x: -4.92, y: 1.63}
      - {x: -4.9, y: 1.4699999}
      - {x: -4.87, y: 1.3299999}
      - {x: -4.85, y: 1.25}
      - {x: -4.81, y: 1.13}
      - {x: -4.72, y: 0.93}
      - {x: -4.5, y: 0.45}
      - {x: -4.37, y: 0.17}
      - {x: -4.27, y: -0.049999997}
      - {x: -4.0299997, y: -0.57}
      - {x: -3.86, y: -0.94}
      - {x: -3.74, y: -1.1999999}
      - {x: -3.6899998, y: -1.31}
      - {x: -3.46, y: -1.81}
      - {x: -3.34, y: -2.07}
      - {x: -3.1699998, y: -2.44}
      - {x: -3.05, y: -2.7}
      - {x: -2.95, y: -2.9199998}
      - {x: -2.82, y: -3.1999998}
      - {x: -2.71, y: -3.4399998}
      - {x: -2.54, y: -3.81}
      - {x: -2.4099998, y: -4.08}
      - {x: -2.28, y: -4.27}
      - {x: -2.25, y: -4.37}
      - {x: -2.2, y: -4.5299997}
      - {x: -2.1699998, y: -4.63}
      - {x: -2.1499999, y: -4.69}
      - {x: -2.1299999, y: -4.7599998}
      - {x: -2.09, y: -4.81}
      - {x: -1.29, y: -4.81}
      - {x: -1.26, y: -4.7799997}
      - {x: -1.26, y: -0.37}
      - {x: -1.18, y: -0.38}
